<?xml version="1.0" encoding="UTF-8" standalone="no"?>
<!-- Created with Inkscape (http://www.inkscape.org/) -->

<svg
   xmlns:dc="http://purl.org/dc/elements/1.1/"
   xmlns:cc="http://creativecommons.org/ns#"
   xmlns:rdf="http://www.w3.org/1999/02/22-rdf-syntax-ns#"
   xmlns:svg="http://www.w3.org/2000/svg"
   xmlns="http://www.w3.org/2000/svg"
   xmlns:sodipodi="http://sodipodi.sourceforge.net/DTD/sodipodi-0.dtd"
   xmlns:inkscape="http://www.inkscape.org/namespaces/inkscape"
   width="630"
   height="58"
   viewBox="0 0 166.68754 15.345834"
   version="1.1"
   id="svg7031"
   inkscape:version="0.92.1 r15371"
   sodipodi:docname="cartons-activites.svg"
   inkscape:export-filename="/home/osp/work/work.balsamine.2018-2019/news/img/cartons-activites-vert.png"
   inkscape:export-xdpi="106.67"
   inkscape:export-ydpi="106.67">
  <defs
     id="defs7025">
    <inkscape:path-effect
       effect="spiro"
       id="path-effect4553"
       is_visible="true" />
    <inkscape:path-effect
       is_visible="true"
       id="path-effect10770-5"
       effect="spiro" />
    <inkscape:path-effect
       effect="spiro"
       id="path-effect4553-3"
       is_visible="true" />
  </defs>
  <sodipodi:namedview
     id="base"
     pagecolor="#ffffff"
     bordercolor="#666666"
     borderopacity="1.0"
     inkscape:pageopacity="0.0"
     inkscape:pageshadow="2"
     inkscape:zoom="2.026984"
     inkscape:cx="280.84221"
     inkscape:cy="113.91329"
     inkscape:document-units="mm"
     inkscape:current-layer="layer2"
     showgrid="false"
     units="px"
     inkscape:snap-global="false"
     inkscape:window-width="1920"
     inkscape:window-height="1014"
     inkscape:window-x="0"
     inkscape:window-y="27"
     inkscape:window-maximized="1"
     fit-margin-top="2"
     fit-margin-right="4"
     fit-margin-left="4"
     fit-margin-bottom="0"
     showguides="true"
     inkscape:guide-bbox="true"
     borderlayer="true" />
  <metadata
     id="metadata7028">
    <rdf:RDF>
      <cc:Work
         rdf:about="">
        <dc:format>image/svg+xml</dc:format>
        <dc:type
           rdf:resource="http://purl.org/dc/dcmitype/StillImage" />
        <dc:title></dc:title>
      </cc:Work>
    </rdf:RDF>
  </metadata>
  <g
     inkscape:groupmode="layer"
     id="layer2"
     inkscape:label="fond"
     style="display:none"
     transform="translate(40.20772,39.690287)"
     sodipodi:insensitive="true">
    <rect
       style="color:#000000;clip-rule:nonzero;display:inline;overflow:visible;visibility:visible;opacity:1;isolation:auto;mix-blend-mode:normal;color-interpolation:sRGB;color-interpolation-filters:linearRGB;solid-color:#000000;solid-opacity:1;vector-effect:none;fill:#ffffff;fill-opacity:1;fill-rule:evenodd;stroke:none;stroke-width:0.98141277;stroke-linecap:round;stroke-linejoin:round;stroke-miterlimit:4;stroke-dasharray:none;stroke-dashoffset:15.19370079;stroke-opacity:1;paint-order:markers stroke fill;color-rendering:auto;image-rendering:auto;shape-rendering:auto;text-rendering:auto;enable-background:accumulate"
       id="rect7852"
       width="181.26685"
       height="27.970238"
       x="-44.064743"
       y="-43.73262" />
  </g>
  <g
     inkscape:label="graphiques"
     inkscape:groupmode="layer"
     id="layer1"
     transform="translate(40.20772,-244.08053)">
    <g
       aria-label="La Balsamine"
       transform="matrix(0.53928527,0,0,0.53928527,-52.670596,205.01271)"
       style="font-style:normal;font-variant:normal;font-weight:normal;font-stretch:normal;font-size:12px;line-height:17.33333397px;font-family:ume-stroke-stroke-scaleX-1-0-int-100-ext-100;-inkscape-font-specification:'ume-stroke-stroke-scaleX-1-0-int-100-ext-100, Normal';font-variant-ligatures:normal;font-variant-caps:normal;font-variant-numeric:normal;font-feature-settings:normal;text-align:start;letter-spacing:0px;word-spacing:0px;writing-mode:lr-tb;text-anchor:start;fill:#000000;fill-opacity:1;stroke:none;stroke-width:1px;stroke-linecap:butt;stroke-linejoin:miter;stroke-opacity:1"
       id="flowRoot4579">
      <path
         d="m 23.353516,88.79948 h 0.984375 v 8.15625 h 4.59375 v 0.9375 h -5.578125 z"
         style="font-style:normal;font-variant:normal;font-weight:normal;font-stretch:normal;font-family:'Ume P Gothic Vertical';-inkscape-font-specification:'Ume P Gothic Vertical'"
         id="path4593"
         inkscape:connector-curvature="0" />
      <path
         d="m 32.957031,90.95573 q 1.078125,0 1.546875,0.632812 0.46875,0.632813 0.46875,1.804688 v 3.09375 q 0,0.75 0.28125,1.40625 h -1.078125 l -0.09375,-0.984375 q -0.5625,0.515625 -1.078125,0.726562 -0.515625,0.210938 -1.03125,0.257813 -1.125,0 -1.664062,-0.539063 -0.539063,-0.539062 -0.539063,-1.617187 0,-0.9375 0.585938,-1.5 0.585937,-0.5625 1.5,-0.726563 0.914062,-0.164062 2.132812,-0.210937 v -0.328125 q 0,-0.46875 -0.28125,-0.796875 -0.28125,-0.328125 -0.84375,-0.328125 h -0.703125 q -0.75,0 -1.03125,0.257812 -0.28125,0.257813 -0.375,0.867188 h -0.84375 q 0.09375,-1.171875 0.65625,-1.59375 0.5625,-0.421875 1.453125,-0.421875 z m -2.25,4.78125 q 0,0.65625 0.328125,0.960937 0.328125,0.304688 1.03125,0.304688 0.328125,-0.04687 0.773438,-0.234375 0.445312,-0.1875 1.148437,-0.890625 v -1.78125 q -1.21875,0.09375 -1.851562,0.1875 -0.632813,0.09375 -1.03125,0.445312 -0.398438,0.351563 -0.398438,1.007813 z"
         style="font-style:normal;font-variant:normal;font-weight:normal;font-stretch:normal;font-family:'Ume P Gothic Vertical';-inkscape-font-specification:'Ume P Gothic Vertical'"
         id="path4595"
         inkscape:connector-curvature="0" />
      <path
         d="m 40.041016,97.89323 v -9.09375 h 3.84375 q 1.03125,-0.04687 1.78125,0.609375 0.75,0.65625 0.75,1.828125 0,1.359375 -0.796875,1.96875 1.40625,0.703125 1.40625,2.015625 0,1.359375 -0.75,2.015625 -0.75,0.65625 -1.921875,0.65625 z m 6.046875,-2.671875 q 0,-0.703125 -0.492188,-1.125 -0.492187,-0.421875 -1.242187,-0.421875 h -3.46875 v 3.28125 h 3.46875 q 0.84375,0 1.289062,-0.421875 0.445313,-0.421875 0.445313,-1.3125 z M 45.478516,91.23698 q 0,-0.609375 -0.421875,-1.054688 -0.421875,-0.445312 -1.171875,-0.445312 h -3 v 3.234375 h 3.28125 q 0.5625,0 0.9375,-0.46875 0.375,-0.46875 0.375,-1.265625 z"
         style="font-style:normal;font-variant:normal;font-weight:normal;font-stretch:normal;font-family:'Ume P Gothic Vertical';-inkscape-font-specification:'Ume P Gothic Vertical'"
         id="path4597"
         inkscape:connector-curvature="0" />
      <path
         d="m 51.355469,90.95573 q 1.078125,0 1.546875,0.632812 0.46875,0.632813 0.46875,1.804688 v 3.09375 q 0,0.75 0.28125,1.40625 h -1.078125 l -0.09375,-0.984375 q -0.5625,0.515625 -1.078125,0.726562 -0.515625,0.210938 -1.03125,0.257813 -1.125,0 -1.664063,-0.539063 -0.539062,-0.539062 -0.539062,-1.617187 0,-0.9375 0.585937,-1.5 0.585938,-0.5625 1.5,-0.726563 0.914063,-0.164062 2.132813,-0.210937 v -0.328125 q 0,-0.46875 -0.28125,-0.796875 -0.28125,-0.328125 -0.84375,-0.328125 h -0.703125 q -0.75,0 -1.03125,0.257812 -0.28125,0.257813 -0.375,0.867188 h -0.84375 q 0.09375,-1.171875 0.65625,-1.59375 0.5625,-0.421875 1.453125,-0.421875 z m -2.25,4.78125 q 0,0.65625 0.328125,0.960937 0.328125,0.304688 1.03125,0.304688 0.328125,-0.04687 0.773437,-0.234375 0.445313,-0.1875 1.148438,-0.890625 v -1.78125 q -1.21875,0.09375 -1.851563,0.1875 -0.632812,0.09375 -1.03125,0.445312 -0.398437,0.351563 -0.398437,1.007813 z"
         style="font-style:normal;font-variant:normal;font-weight:normal;font-stretch:normal;font-family:'Ume P Gothic Vertical';-inkscape-font-specification:'Ume P Gothic Vertical'"
         id="path4599"
         inkscape:connector-curvature="0" />
      <path
         d="m 57.52832,97.89323 h -0.5625 q -1.171875,0 -1.171875,-1.078125 v -8.4375 h 0.9375 v 8.4375 q 0,0.234375 0.28125,0.234375 h 0.515625 z"
         style="font-style:normal;font-variant:normal;font-weight:normal;font-stretch:normal;font-family:'Ume P Gothic Vertical';-inkscape-font-specification:'Ume P Gothic Vertical'"
         id="path4601"
         inkscape:connector-curvature="0" />
      <path
         d="m 58.533203,95.877605 h 1.078125 q 0,0.5625 0.5625,0.867187 0.5625,0.304688 1.359375,0.304688 0.796875,0 1.359375,-0.28125 0.5625,-0.28125 0.5625,-0.84375 0,-0.515625 -0.609375,-0.726563 -0.609375,-0.210937 -1.710937,-0.328125 -1.101563,-0.117187 -1.664063,-0.609375 -0.5625,-0.492187 -0.5625,-1.382812 0,-0.9375 0.65625,-1.40625 0.65625,-0.46875 1.453125,-0.46875 h 0.984375 q 0.84375,0 1.5,0.492187 0.65625,0.492188 0.65625,1.242188 h -1.078125 q -0.09375,-0.421875 -0.421875,-0.65625 -0.328125,-0.234375 -1.125,-0.234375 -0.890625,0 -1.195312,0.28125 -0.304688,0.28125 -0.304688,0.75 0,0.609375 0.421875,0.820312 0.421875,0.210938 1.476563,0.328125 1.054687,0.117188 1.804687,0.585938 0.75,0.46875 0.75,1.3125 0,0.9375 -0.726562,1.453125 -0.726563,0.515625 -2.226563,0.515625 -1.40625,0 -2.132812,-0.539063 -0.726563,-0.539062 -0.867188,-1.476562 z"
         style="font-style:normal;font-variant:normal;font-weight:normal;font-stretch:normal;font-family:'Ume P Gothic Vertical';-inkscape-font-specification:'Ume P Gothic Vertical'"
         id="path4603"
         inkscape:connector-curvature="0" />
      <path
         d="m 68.816406,90.95573 q 1.078125,0 1.546875,0.632812 0.46875,0.632813 0.46875,1.804688 v 3.09375 q 0,0.75 0.28125,1.40625 h -1.078125 l -0.09375,-0.984375 q -0.5625,0.515625 -1.078125,0.726562 -0.515625,0.210938 -1.03125,0.257813 -1.125,0 -1.664062,-0.539063 -0.539063,-0.539062 -0.539063,-1.617187 0,-0.9375 0.585938,-1.5 0.585937,-0.5625 1.5,-0.726563 0.914062,-0.164062 2.132812,-0.210937 v -0.328125 q 0,-0.46875 -0.28125,-0.796875 -0.28125,-0.328125 -0.84375,-0.328125 h -0.703125 q -0.75,0 -1.03125,0.257812 -0.28125,0.257813 -0.375,0.867188 h -0.84375 q 0.09375,-1.171875 0.65625,-1.59375 0.5625,-0.421875 1.453125,-0.421875 z m -2.25,4.78125 q 0,0.65625 0.328125,0.960937 0.328125,0.304688 1.03125,0.304688 0.328125,-0.04687 0.773438,-0.234375 0.445312,-0.1875 1.148437,-0.890625 v -1.78125 q -1.21875,0.09375 -1.851562,0.1875 -0.632813,0.09375 -1.03125,0.445312 -0.398438,0.351563 -0.398438,1.007813 z"
         style="font-style:normal;font-variant:normal;font-weight:normal;font-stretch:normal;font-family:'Ume P Gothic Vertical';-inkscape-font-specification:'Ume P Gothic Vertical'"
         id="path4605"
         inkscape:connector-curvature="0" />
      <path
         d="m 79.418945,91.846355 q -0.703125,0 -1.3125,0.984375 v 5.0625 h -1.03125 v -4.6875 q 0,-0.703125 -0.304687,-1.03125 -0.304688,-0.328125 -0.539063,-0.328125 H 75.52832 q -0.796875,0.04687 -1.3125,0.984375 v 5.0625 h -1.03125 v -6.890625 h 1.03125 v 0.84375 q 0.5625,-0.84375 1.359375,-0.84375 h 0.65625 q 0.46875,0 0.914063,0.257812 0.445312,0.257813 0.726562,0.679688 0.5625,-0.9375 1.546875,-0.9375 h 0.703125 q 0.75,0 1.3125,0.445312 0.5625,0.445313 0.5625,1.757813 v 4.6875 h -1.078125 v -4.6875 q 0,-0.796875 -0.257812,-1.078125 -0.257813,-0.28125 -0.585938,-0.28125 z"
         style="font-style:normal;font-variant:normal;font-weight:normal;font-stretch:normal;font-family:'Ume P Gothic Vertical';-inkscape-font-specification:'Ume P Gothic Vertical'"
         id="path4607"
         inkscape:connector-curvature="0" />
      <path
         d="m 85.213867,97.89323 h -1.03125 v -6.890625 h 1.03125 z m 0,-8.203125 h -1.03125 V 87.58073 h 1.03125 z"
         style="font-style:normal;font-variant:normal;font-weight:normal;font-stretch:normal;font-family:'Ume P Gothic Vertical';-inkscape-font-specification:'Ume P Gothic Vertical'"
         id="path4609"
         inkscape:connector-curvature="0" />
      <path
         d="m 90.129883,91.846355 q -0.984375,0 -1.734375,1.171875 v 4.875 h -0.984375 v -6.890625 h 0.984375 v 0.84375 q 0.65625,-0.84375 1.6875,-0.84375 h 0.84375 q 1.78125,0 1.78125,1.875 v 5.015625 h -0.9375 v -5.015625 q 0,-1.03125 -0.890625,-1.03125 z"
         style="font-style:normal;font-variant:normal;font-weight:normal;font-stretch:normal;font-family:'Ume P Gothic Vertical';-inkscape-font-specification:'Ume P Gothic Vertical'"
         id="path4611"
         inkscape:connector-curvature="0" />
      <path
         d="m 95.359375,94.79948 q 0,1.03125 0.5625,1.640625 0.5625,0.609375 1.3125,0.609375 0.5625,0 0.9375,-0.210938 0.375,-0.210937 0.5625,-0.632812 h 0.984375 q -0.1875,0.796875 -0.820313,1.242187 -0.632812,0.445313 -1.617187,0.445313 -1.3125,0 -2.0625,-0.867188 -0.75,-0.867187 -0.75,-2.226562 v -0.796875 q 0,-1.453125 0.703125,-2.226563 0.703125,-0.773437 1.59375,-0.773437 h 0.65625 q 0.703125,0 1.476562,0.679687 0.773438,0.679688 0.773438,2.320313 v 0.796875 z m 3.46875,-0.796875 q 0,-1.21875 -0.539063,-1.6875 -0.539062,-0.46875 -1.242187,-0.46875 -0.75,0 -1.21875,0.539062 -0.46875,0.539063 -0.46875,1.617188 z"
         style="font-style:normal;font-variant:normal;font-weight:normal;font-stretch:normal;font-family:'Ume P Gothic Vertical';-inkscape-font-specification:'Ume P Gothic Vertical'"
         id="path4613"
         inkscape:connector-curvature="0" />
    </g>
    <path
       sodipodi:nodetypes="ccccaasssccc"
       inkscape:original-d="m 2.1336276,254.67526 c 1.057944,-0.75199 -0.7203968,-4.51914 2.807854,-2.55519 0,0 0.064636,-1.9646 -0.037298,-2.71437 -0.7940003,-4.86021 3.3089329,-2.37813 6.5557264,-2.77729 1.733043,-0.2871 4.944621,1.05157 7.456965,1.25677 2.284373,0.18658 4.588934,-0.17907 6.875887,-0.0273 2.414087,0.16016 5.613172,0.93428 7.190698,0.98746 6.194536,0.20899 -2.942063,6.38737 -1.108471,6.99481 3.421578,1.13349 -11.93176,1.97093 -12.449983,0.93174 -2.486363,-4.98603 -8.660992,1.43221 -11.6701479,-0.12374 -1.4850473,-0.7972 -2.4090338,-0.7907 -2.3339501,-2.32319 z"
       inkscape:path-effect="#path-effect4553-3"
       inkscape:connector-curvature="0"
       id="path4551-9"
       d="m 2.1336276,254.67526 2.807854,-2.55519 c -0.3677268,-0.85273 -0.3814556,-1.85185 -0.037298,-2.71437 0.2361059,-0.59172 0.6322641,-1.11435 1.1169134,-1.52787 0.4846493,-0.41351 1.0560983,-0.71982 1.6584816,-0.92722 1.2047668,-0.4148 2.5110864,-0.43417 3.7803314,-0.3222 2.512004,0.22159 4.955651,0.93631 7.456965,1.25677 2.279345,0.29202 4.595189,0.25396 6.875887,-0.0273 1.246596,-0.15373 2.494107,-0.38029 3.748892,-0.32417 0.627393,0.0281 1.254618,0.1279 1.846495,0.33787 0.591877,0.20998 1.148322,0.53261 1.595311,0.97376 0.47877,0.47251 0.824163,1.0757 1.006295,1.72324 0.182131,0.64755 0.202344,1.33792 0.07572,1.99856 -0.253241,1.3213 -1.093276,2.4945 -2.19049,3.27301 -0.866061,0.6145 -1.883024,0.9967 -2.925399,1.19949 -1.042374,0.20279 -2.112192,0.23109 -3.17292,0.18083 -2.121454,-0.10054 -4.228784,-0.51226 -6.351664,-0.44858 -1.97874,0.0594 -3.920919,0.53039 -5.890047,0.73403 -1.969127,0.20365 -4.0556402,0.11443 -5.7801009,-0.85777 -0.9679049,-0.54568 -1.7838082,-1.35782 -2.3339501,-2.32319 z"
       style="display:inline;fill:none;fill-opacity:1;fill-rule:evenodd;stroke:#000000;stroke-width:0.47592616;stroke-linecap:round;stroke-linejoin:round;stroke-miterlimit:4;stroke-dasharray:none;stroke-opacity:1" />
    <g
       style="display:inline;fill:none"
       id="g7192"
       transform="matrix(0.29547711,0,0,0.29547711,-75.452471,-179.45542)">
      <path
         style="color:#000000;font-style:normal;font-variant:normal;font-weight:normal;font-stretch:normal;font-size:medium;line-height:normal;font-family:sans-serif;font-variant-ligatures:normal;font-variant-position:normal;font-variant-caps:normal;font-variant-numeric:normal;font-variant-alternates:normal;font-feature-settings:normal;text-indent:0;text-align:start;text-decoration:none;text-decoration-line:none;text-decoration-style:solid;text-decoration-color:#000000;letter-spacing:normal;word-spacing:normal;text-transform:none;writing-mode:lr-tb;direction:ltr;text-orientation:mixed;dominant-baseline:auto;baseline-shift:baseline;text-anchor:start;white-space:normal;shape-padding:0;clip-rule:nonzero;display:inline;overflow:visible;visibility:visible;opacity:1;isolation:auto;mix-blend-mode:normal;color-interpolation:sRGB;color-interpolation-filters:linearRGB;solid-color:#000000;solid-opacity:1;vector-effect:none;fill:none;fill-opacity:1;fill-rule:evenodd;stroke:none;stroke-width:2.55699253;stroke-linecap:butt;stroke-linejoin:miter;stroke-miterlimit:4;stroke-dasharray:none;stroke-dashoffset:0;stroke-opacity:1;color-rendering:auto;image-rendering:auto;shape-rendering:auto;text-rendering:auto;enable-background:accumulate"
         d="m 380.09199,1443.623 -0.10647,3.0598 2.55593,0.088 0.1049,-3.0597 z m -1.05627,30.6127 -0.21704,9.0998 h 2.55953 l 0.21394,-9.0126 z"
         id="path4596-3"
         inkscape:connector-curvature="0"
         sodipodi:nodetypes="cccccccccc" />
      <path
         inkscape:connector-curvature="0"
         id="path4600-6"
         d="m 466.77316,1472.3097 c 0,0 -0.56034,0.028 -0.86798,-0.117 -0.30765,-0.1449 -0.77148,-0.028 -0.77148,-0.028 0,0 -3.47328,1.8103 -7.70323,1.8715 -4.22988,0.061 -33.48166,-1.8887 -35.4883,-1.8152 -13.8556,1.0618 -25.60937,2.3771 -39.49564,1.7799 0,0 -0.54104,0.1421 -0.76116,0.1532 -0.22014,0 -2.78912,0.5412 -2.78912,0.5412 l 0.94372,-9.1298 -0.41392,-9.0525 0.0326,-9.8128 c 0,0 0.0817,-0.2313 0.2416,-0.2397 0.16023,0 0.36569,0 0.3967,0.075 0.031,0.064 0.20148,0.2313 0.20148,0.2313 0,0 2.69161,0.5052 4.16546,0.6214 12.51223,2.6543 25.03781,0.4288 37.46566,0.2341 7.66258,-0.1199 25.67635,1.577 33.42566,0.8613 2.32063,0 9.47965,-0.8649 9.47965,-0.8649 0,0 0.13348,-0.2817 0.35343,-0.2934 0.22042,0 0.65146,0.028 0.7369,0.059 0.0856,0.028 0.34216,2.109 0.35267,3.111 0.0112,1.0021 -0.6137,4.1487 -0.51418,5.5507 0.0995,1.4017 0.77195,4.3118 0.83757,5.0524 0.0666,0.7405 -0.32863,3.7445 -0.29669,4.5191 0.0323,0.7747 0.16302,4.4026 0.16302,4.4026 z"
         style="display:inline;fill:none;fill-opacity:1;fill-rule:evenodd;stroke:#000000;stroke-width:1.61070395;stroke-linecap:round;stroke-linejoin:round;stroke-miterlimit:4;stroke-dasharray:none;stroke-opacity:1"
         sodipodi:nodetypes="cccsccsccccscccsccsccccccc" />
      <path
         style="fill:none;fill-rule:evenodd;stroke:#000000;stroke-width:0.8523308px;stroke-linecap:round;stroke-linejoin:miter;stroke-opacity:1"
         d="m 380.77957,1449.0762 c 0.81899,0.5075 6.60705,1.0667 7.28276,1.0264"
         id="path4691-7"
         inkscape:connector-curvature="0"
         sodipodi:nodetypes="cc" />
      <path
         style="fill:none;fill-rule:evenodd;stroke:#000000;stroke-width:0.8523308px;stroke-linecap:round;stroke-linejoin:miter;stroke-opacity:1"
         d="m 382.12484,1471.1926 c 1.19341,-0.4473 2.43045,-0.8073 3.76681,-0.9686"
         id="path4695-3"
         inkscape:connector-curvature="0"
         sodipodi:nodetypes="cc" />
      <path
         style="fill:none;fill-rule:evenodd;stroke:#000000;stroke-width:0.8523308px;stroke-linecap:round;stroke-linejoin:miter;stroke-opacity:1"
         d="m 382.34009,1469.1478 c 0.8536,-0.3369 1.10019,-0.3706 1.39911,-0.4305"
         id="path4697-6"
         inkscape:connector-curvature="0"
         sodipodi:nodetypes="cc" />
    </g>
    <g
       style="display:inline"
       transform="matrix(0.95184613,-0.00342454,0.00342454,0.95184613,36.344823,-6.367177)"
       id="g4658-5">
      <path
         inkscape:connector-curvature="0"
         id="path4508-3"
         style="font-style:normal;font-variant:normal;font-weight:normal;font-stretch:normal;font-size:6.03084469px;line-height:1.25;font-family:'Ume Mincho Balsa';-inkscape-font-specification:'Ume Mincho Balsa';letter-spacing:0px;word-spacing:0px;fill:#000000;fill-opacity:1;stroke:none;stroke-width:0.37692779"
         d="M 4.0245446,269.9293 H 3.6476168 q -0.5418337,0 -0.5418337,0.94232 H 2.9408772 v -1.08367 h 2.5678206 v 1.08367 H 5.3437919 q 0,-0.94232 -0.5889497,-0.94232 H 4.3543565 v 3.74572 h 0.3533698 v 0.14135 H 3.6711748 v -0.14135 h 0.3533698 z" />
      <path
         inkscape:connector-curvature="0"
         id="path4510-5"
         style="font-style:normal;font-variant:normal;font-weight:normal;font-stretch:normal;font-size:6.03084469px;line-height:1.25;font-family:'Ume Mincho Balsa';-inkscape-font-specification:'Ume Mincho Balsa';letter-spacing:0px;word-spacing:0px;fill:#000000;fill-opacity:1;stroke:none;stroke-width:0.37692779"
         d="m 6.4745753,273.67502 h 0.3533698 v 0.14135 H 5.7913937 v -0.14135 H 6.1447635 V 269.9293 H 5.8149517 v -0.14135 h 0.9894354 v 0.14135 H 6.4745753 v 1.71973 H 7.9822865 V 269.9293 H 7.6289167 v -0.14135 h 1.0129934 v 0.14135 H 8.3120983 v 3.74572 h 0.3533698 v 0.14135 H 7.6289167 v -0.14135 h 0.3533698 v -1.88464 H 6.4745753 Z" />
      <path
         inkscape:connector-curvature="0"
         id="path4512-6"
         style="font-style:normal;font-variant:normal;font-weight:normal;font-stretch:normal;font-size:6.03084469px;line-height:1.25;font-family:'Ume Mincho Balsa';-inkscape-font-specification:'Ume Mincho Balsa';letter-spacing:0px;word-spacing:0px;fill:#000000;fill-opacity:1;stroke:none;stroke-width:0.37692779"
         d="m 8.87749,270.49469 h 2.662052 v 0.87165 h -0.212021 q 0,-0.7303 -0.70674,-0.7303 H 9.5371136 v 1.43704 h 0.8952034 q 0.35337,0 0.376928,-0.40049 h 0.188464 v 0.91876 h -0.188464 q -0.02356,-0.37693 -0.376928,-0.37693 H 9.5371136 v 1.4606 h 1.0836674 q 0.70674,0 0.70674,-0.70674 h 0.212021 v 0.84809 H 8.830374 v -0.14135 h 0.3769278 v -3.03898 H 8.87749 Z m 1.366363,-1.6255 h 0.753856 v 0.16491 l -1.3899214,0.84808 -0.11779,-0.11779 z" />
      <path
         inkscape:connector-curvature="0"
         id="path4514-2"
         style="font-style:normal;font-variant:normal;font-weight:normal;font-stretch:normal;font-size:6.03084469px;line-height:1.25;font-family:'Ume Mincho Balsa';-inkscape-font-specification:'Ume Mincho Balsa';letter-spacing:0px;word-spacing:0px;fill:#000000;fill-opacity:1;stroke:none;stroke-width:0.37692779"
         d="m 12.411187,273.67502 h 0.47116 v 0.14135 h -1.130783 v -0.14135 h 0.447602 l 0.918761,-3.18033 h 0.188464 l 1.036551,3.18033 h 0.424044 v 0.14135 h -1.248573 v -0.14135 h 0.400486 l -0.290058,-0.96588 h -0.945264 z m 0.518276,-4.80583 h 0.636066 l 0.777413,1.03655 -0.188464,0.0471 -0.895203,-0.65963 -0.895204,0.65963 -0.188463,-0.0471 z m 0.212022,2.21445 -0.412265,1.4606 h 0.851033 z" />
      <path
         inkscape:connector-curvature="0"
         id="path4516-9"
         style="font-style:normal;font-variant:normal;font-weight:normal;font-stretch:normal;font-size:6.03084469px;line-height:1.25;font-family:'Ume Mincho Balsa';-inkscape-font-specification:'Ume Mincho Balsa';letter-spacing:0px;word-spacing:0px;fill:#000000;fill-opacity:1;stroke:none;stroke-width:0.37692779"
         d="m 16.086234,269.9293 h -0.376928 q -0.541834,0 -0.541834,0.94232 h -0.164905 v -1.08367 h 2.56782 v 1.08367 h -0.164906 q 0,-0.94232 -0.588949,-0.94232 h -0.400486 v 3.74572 h 0.35337 v 0.14135 h -1.036552 v -0.14135 h 0.35337 z" />
      <path
         inkscape:connector-curvature="0"
         id="path4518-1"
         style="font-style:normal;font-variant:normal;font-weight:normal;font-stretch:normal;font-size:6.03084469px;line-height:1.25;font-family:'Ume Mincho Balsa';-inkscape-font-specification:'Ume Mincho Balsa';letter-spacing:0px;word-spacing:0px;fill:#000000;fill-opacity:1;stroke:none;stroke-width:0.37692779"
         d="m 17.876641,269.78795 h 1.225016 q 0.612507,0 0.989435,0.25914 0.376928,0.25914 0.376928,0.7303 0,0.32981 -0.247359,0.57717 -0.247359,0.24736 -0.647845,0.31803 l 0.800972,2.00243 h 0.424044 v 0.14135 h -0.777414 l -0.800971,-2.12022 h -0.636066 v 1.97887 h 0.35337 v 0.14135 h -1.06011 v -0.14135 h 0.376928 v -3.74572 h -0.376928 z m 0.70674,0.14135 v 1.6255 h 0.518276 q 0.447601,0 0.706739,-0.25914 0.259138,-0.25914 0.259138,-0.51827 0,-0.40049 -0.282696,-0.62429 -0.282695,-0.2238 -0.683181,-0.2238 z" />
      <path
         inkscape:connector-curvature="0"
         id="path4520-2"
         style="font-style:normal;font-variant:normal;font-weight:normal;font-stretch:normal;font-size:6.03084469px;line-height:1.25;font-family:'Ume Mincho Balsa';-inkscape-font-specification:'Ume Mincho Balsa';letter-spacing:0px;word-spacing:0px;fill:#000000;fill-opacity:1;stroke:none;stroke-width:0.37692779"
         d="m 20.939178,269.78795 h 2.662053 v 1.01299 h -0.164906 q 0,-0.87164 -0.753856,-0.87164 h -1.083667 v 1.69617 h 0.918761 q 0.35337,0 0.376928,-0.54183 h 0.164906 v 1.1779 h -0.164906 q -0.02356,-0.49472 -0.376928,-0.49472 h -0.918761 v 1.9082 h 1.083667 q 0.753856,0 0.753856,-0.84809 h 0.164906 v 0.98944 h -2.709169 v -0.14135 h 0.376928 v -3.74572 h -0.329812 z" />
    </g>
    <path
       style="fill:none;fill-rule:evenodd;stroke:#000000;stroke-width:0.72291642;stroke-linecap:butt;stroke-linejoin:miter;stroke-miterlimit:4;stroke-dasharray:none;stroke-opacity:1"
       d="m 65.406114,246.57742 0.09829,0.91486 m 0.980576,9.12717 0.255821,2.16818"
       id="path4571-3"
       inkscape:connector-curvature="0"
       sodipodi:nodetypes="cccc" />
    <path
       inkscape:connector-curvature="0"
       id="path4573-6"
       d="m 84.45209,244.1778 0.02355,1.40588 m 0.173357,10.36657 0.0415,2.99141"
       style="fill:none;fill-rule:evenodd;stroke:#000000;stroke-width:0.72268879;stroke-linecap:butt;stroke-linejoin:miter;stroke-miterlimit:4;stroke-dasharray:none;stroke-opacity:1"
       sodipodi:nodetypes="cccc" />
    <path
       sodipodi:nodetypes="ccccscccsccccscccccccscccscc"
       inkscape:connector-curvature="0"
       id="path4575-7"
       d="m 66.268694,256.69536 c 0,0 0.154597,0 0.2319,-0.0626 0.07731,-0.0626 0.209806,-0.0248 0.209806,-0.0248 0,0 1.004859,0.0371 2.164338,-0.0248 1.159481,-0.0626 4.682053,-0.21213 5.234187,-0.22463 0.552132,-0.0124 3.931161,-0.11222 4.637883,-0.17465 0.706728,-0.0626 4.571637,-0.18707 4.77041,-0.17463 0.198756,0.0124 1.247809,0.0124 1.247809,0.0124 0,0 0.154599,0.0436 0.215332,0.0436 0.06076,0 0.149068,-0.0749 0.149068,-0.0749 l 0.115957,-3.28712 -0.06628,-2.49685 -0.265023,-4.6719 c 0,0 -0.0331,-0.0873 -0.07732,-0.0873 -0.04413,0 -0.09938,0.0124 -0.104906,0.0371 -0.0058,0.0248 -0.04414,0.0935 -0.04414,0.0935 0,0 -0.712244,0.24958 -1.109785,0.32437 -0.397529,0.0749 -3.390068,0.51773 -3.892515,0.61125 -0.502433,0.0936 -5.620681,-0.19152 -6.067895,-0.12909 -0.44724,0.0625 -5.918829,0.94804 -6.553768,0.99168 -0.634962,0.0436 -1.424507,0.12481 -1.424507,0.12481 0,0 -0.04965,-0.10605 -0.110425,-0.10605 -0.06077,0 -0.176672,0.0248 -0.198765,0.0371 -0.02207,0.0124 0.0058,0.45531 0.04965,0.84206 0.04413,0.38666 0.154606,1.60305 0.193248,2.14566 0.03862,0.5427 0.171167,1.42843 0.187723,1.71528 0.01658,0.28696 0.176683,1.74033 0.204281,2.0397 0.0276,0.29947 0.303682,2.51998 0.303682,2.51998 z"
       style="display:inline;fill:none;fill-opacity:1;fill-rule:evenodd;stroke:#000000;stroke-width:0.47592607;stroke-linecap:round;stroke-linejoin:round;stroke-miterlimit:4;stroke-dasharray:none;stroke-opacity:1" />
    <path
       style="display:inline;fill:none;fill-rule:evenodd;stroke:#000000;stroke-width:0.24089625;stroke-linecap:round;stroke-linejoin:round;stroke-miterlimit:4;stroke-dasharray:none;stroke-opacity:1"
       d="m 84.334363,246.0773 c 0,0 -1.269907,0.736 -2.252694,0.99794 -0.982777,0.262 -1.844114,0.56138 -1.844114,0.56138"
       id="path3388-7"
       inkscape:connector-curvature="0"
       sodipodi:nodetypes="csc" />
    <path
       style="display:inline;fill:none;fill-rule:evenodd;stroke:#000000;stroke-width:0.24089625;stroke-linecap:round;stroke-linejoin:round;stroke-miterlimit:4;stroke-dasharray:none;stroke-opacity:1"
       d="m 84.632502,247.13945 c 0,0 -0.651503,0.0749 -1.015894,0.13719 -0.364421,0.0626 -0.993861,0.23706 -0.993861,0.23706"
       id="path3390-0"
       inkscape:connector-curvature="0" />
    <path
       style="display:inline;fill:none;fill-rule:evenodd;stroke:#000000;stroke-width:0.24089625;stroke-linecap:round;stroke-linejoin:round;stroke-miterlimit:4;stroke-dasharray:none;stroke-opacity:1"
       d="m 84.433747,247.50117 c 0,0 -0.949673,0.24956 -1.42451,0.4616 -0.47482,0.21209 -1.645332,0.74853 -1.645332,0.74853"
       id="path3392-9"
       inkscape:connector-curvature="0" />
    <path
       style="display:inline;fill:none;fill-rule:evenodd;stroke:#000000;stroke-width:0.24089625;stroke-linecap:round;stroke-linejoin:round;stroke-miterlimit:4;stroke-dasharray:none;stroke-opacity:1"
       d="m 65.935452,247.99388 3.844311,0.14065"
       id="path3400-3"
       inkscape:connector-curvature="0" />
    <path
       style="display:inline;fill:none;fill-rule:evenodd;stroke:#000000;stroke-width:0.24089625;stroke-linecap:round;stroke-linejoin:round;stroke-miterlimit:4;stroke-dasharray:none;stroke-opacity:1"
       d="m 65.774258,248.42413 c 0,0 0.326845,0.24607 0.840449,0.43958 0.513619,0.19333 1.867693,0.42191 1.867693,0.42191"
       id="path3402-6"
       inkscape:connector-curvature="0" />
    <g
       transform="matrix(0.95185227,0,0,0.95185227,-25.593085,-6.5515966)"
       id="g4673-0">
      <path
         inkscape:connector-curvature="0"
         id="path4586-6"
         style="font-style:normal;font-variant:normal;font-weight:normal;font-stretch:normal;font-size:15px;line-height:1.25;font-family:'Ume Mincho Balsa';-inkscape-font-specification:'Ume Mincho Balsa';text-align:start;letter-spacing:0px;word-spacing:0px;writing-mode:lr-tb;text-anchor:start;fill:#000000;fill-opacity:1;stroke:none;stroke-width:0.40205631px;stroke-linecap:butt;stroke-linejoin:miter;stroke-opacity:1"
         d="m 98.636379,269.61134 h 1.2957 q 0.659621,0 1.036541,0.58893 0.37694,0.58897 0.37694,1.48419 0,0.89518 -0.38872,1.42525 -0.3887,0.53003 -1.048331,0.53003 h -1.27213 v -0.14132 h 0.37693 v -3.74572 h -0.37693 z m 2.285131,2.07312 q 0,-0.94234 -0.31803,-1.43707 -0.31804,-0.49469 -0.671401,-0.49469 h -0.58896 v 3.74572 h 0.56539 q 0.353381,0 0.683191,-0.50651 0.32981,-0.50651 0.32981,-1.30745 z" />
      <path
         inkscape:connector-curvature="0"
         id="path4588-2"
         style="font-style:normal;font-variant:normal;font-weight:normal;font-stretch:normal;font-size:15px;line-height:1.25;font-family:'Ume Mincho Balsa';-inkscape-font-specification:'Ume Mincho Balsa';text-align:start;letter-spacing:0px;word-spacing:0px;writing-mode:lr-tb;text-anchor:start;fill:#000000;fill-opacity:1;stroke:none;stroke-width:0.40205631px;stroke-linecap:butt;stroke-linejoin:miter;stroke-opacity:1"
         d="m 102.17009,273.49842 h 0.51828 v 0.14132 h -1.13079 v -0.14132 h 0.42405 l 0.91876,-3.88708 h 0.25914 l 0.94232,3.88708 h 0.47116 v 0.14132 h -1.24857 v -0.14132 h 0.40048 l -0.34306,-1.48415 h -0.86871 z m 0.77742,-3.36879 -0.39754,1.71972 h 0.79508 z" />
      <path
         inkscape:connector-curvature="0"
         id="path4590-6"
         style="font-style:normal;font-variant:normal;font-weight:normal;font-stretch:normal;font-size:15px;line-height:1.25;font-family:'Ume Mincho Balsa';-inkscape-font-specification:'Ume Mincho Balsa';text-align:start;letter-spacing:0px;word-spacing:0px;writing-mode:lr-tb;text-anchor:start;fill:#000000;fill-opacity:1;stroke:none;stroke-width:0.40205631px;stroke-linecap:butt;stroke-linejoin:miter;stroke-opacity:1"
         d="m 104.62012,269.61134 h 0.61251 l 1.79041,3.25099 v -3.10963 h -0.35337 v -0.14136 h 0.84808 v 0.14136 h -0.35336 v 3.88704 h -0.14135 l -1.88464,-3.46299 v 3.32167 h 0.35337 v 0.14132 h -0.84809 v -0.14132 h 0.35337 v -3.74572 h -0.37693 z" />
      <path
         inkscape:connector-curvature="0"
         id="path4592-1"
         style="font-style:normal;font-variant:normal;font-weight:normal;font-stretch:normal;font-size:15px;line-height:1.25;font-family:'Ume Mincho Balsa';-inkscape-font-specification:'Ume Mincho Balsa';text-align:start;letter-spacing:0px;word-spacing:0px;writing-mode:lr-tb;text-anchor:start;fill:#000000;fill-opacity:1;stroke:none;stroke-width:0.40205631px;stroke-linecap:butt;stroke-linejoin:miter;stroke-opacity:1"
         d="m 109.04903,269.61134 q 0.21202,0 0.41226,0.0707 0.20024,0.0707 0.41227,0.25913 l 0.23558,-0.32981 h 0.1649 v 1.29571 h -0.1649 q -0.0236,-0.32985 -0.17669,-0.57719 -0.15313,-0.24735 -0.37693,-0.38871 -0.2238,-0.14133 -0.50649,-0.14133 -0.35338,0 -0.55362,0.20023 -0.20024,0.20022 -0.20024,0.60071 0.0236,0.30629 0.21202,0.45939 0.18846,0.15314 0.70674,0.31803 0.65963,0.21204 0.89521,0.50651 0.23557,0.29446 0.23557,0.71851 0,0.51829 -0.30625,0.7892 -0.30625,0.2709 -0.84809,0.2709 -0.32981,0 -0.51827,-0.0825 -0.18847,-0.0824 -0.40049,-0.2709 l -0.1649,0.35336 h -0.16491 v -1.34278 h 0.16491 q 0.0707,0.44761 0.17668,0.67139 0.10601,0.22378 0.34159,0.35337 0.23558,0.12958 0.56539,0.12958 0.30626,0 0.51828,-0.21204 0.21202,-0.21201 0.21202,-0.65962 0,-0.23556 -0.14135,-0.44761 -0.14135,-0.212 -0.68318,-0.42405 -0.7303,-0.23556 -0.96588,-0.49469 -0.23558,-0.25916 -0.23558,-0.63609 0,-0.44757 0.29448,-0.71851 0.29447,-0.27091 0.85987,-0.27091 z" />
      <path
         inkscape:connector-curvature="0"
         id="path4594-8"
         style="font-style:normal;font-variant:normal;font-weight:normal;font-stretch:normal;font-size:15px;line-height:1.25;font-family:'Ume Mincho Balsa';-inkscape-font-specification:'Ume Mincho Balsa';text-align:start;letter-spacing:0px;word-spacing:0px;writing-mode:lr-tb;text-anchor:start;fill:#000000;fill-opacity:1;stroke:none;stroke-width:0.40205631px;stroke-linecap:butt;stroke-linejoin:miter;stroke-opacity:1"
         d="m 110.7452,269.61134 h 2.66205 v 1.01298 h -0.16491 q 0,-0.87162 -0.75385,-0.87162 h -1.08367 v 1.69616 h 0.91877 q 0.35336,0 0.37692,-0.54181 h 0.16491 v 1.17786 h -0.16491 q -0.0236,-0.49469 -0.37692,-0.49469 h -0.91877 v 1.9082 h 1.08367 q 0.75385,0 0.75385,-0.8481 h 0.16491 v 0.98942 h -2.70917 v -0.14132 h 0.37693 v -3.74572 h -0.32981 z" />
    </g>
    <path
       sodipodi:nodetypes="ccccccccc"
       inkscape:connector-curvature="0"
       id="path4589-0"
       d="m 87.888035,247.47822 -0.292558,11.35805 h 0.802084 l 0.04535,-2.47016 h -0.412117 l 0.05848,-7.98914 c 0.191983,0.008 0.383553,0.008 0.575495,0.0106 l 0.02458,-0.88791 z"
       style="color:#000000;font-style:normal;font-variant:normal;font-weight:normal;font-stretch:normal;font-size:medium;line-height:normal;font-family:sans-serif;font-variant-ligatures:normal;font-variant-position:normal;font-variant-caps:normal;font-variant-numeric:normal;font-variant-alternates:normal;font-feature-settings:normal;text-indent:0;text-align:start;text-decoration:none;text-decoration-line:none;text-decoration-style:solid;text-decoration-color:#000000;letter-spacing:normal;word-spacing:normal;text-transform:none;writing-mode:lr-tb;direction:ltr;text-orientation:mixed;dominant-baseline:auto;baseline-shift:baseline;text-anchor:start;white-space:normal;shape-padding:0;clip-rule:nonzero;display:inline;overflow:visible;visibility:visible;opacity:1;isolation:auto;mix-blend-mode:normal;color-interpolation:sRGB;color-interpolation-filters:linearRGB;solid-color:#000000;solid-opacity:1;vector-effect:none;fill:#000000;fill-opacity:1;fill-rule:nonzero;stroke:none;stroke-width:0.80123669;stroke-linecap:butt;stroke-linejoin:miter;stroke-miterlimit:4;stroke-dasharray:none;stroke-dashoffset:0;stroke-opacity:1;color-rendering:auto;image-rendering:auto;shape-rendering:auto;text-rendering:auto;enable-background:accumulate" />
    <path
       sodipodi:nodetypes="ccccccccc"
       inkscape:connector-curvature="0"
       id="path4591-6"
       d="m 125.70603,247.41132 -0.80133,0.0222 0.0217,0.78836 c 0.13813,-0.008 0.27661,-0.008 0.41471,-0.0115 l 0.22233,8.14367 c -0.14537,-0.008 -0.26977,-0.008 -0.41319,-0.0115 l 0.046,2.63211 h 0.80179 z"
       style="color:#000000;font-style:normal;font-variant:normal;font-weight:normal;font-stretch:normal;font-size:medium;line-height:normal;font-family:sans-serif;font-variant-ligatures:normal;font-variant-position:normal;font-variant-caps:normal;font-variant-numeric:normal;font-variant-alternates:normal;font-feature-settings:normal;text-indent:0;text-align:start;text-decoration:none;text-decoration-line:none;text-decoration-style:solid;text-decoration-color:#000000;letter-spacing:normal;word-spacing:normal;text-transform:none;writing-mode:lr-tb;direction:ltr;text-orientation:mixed;dominant-baseline:auto;baseline-shift:baseline;text-anchor:start;white-space:normal;shape-padding:0;clip-rule:nonzero;display:inline;overflow:visible;visibility:visible;opacity:1;isolation:auto;mix-blend-mode:normal;color-interpolation:sRGB;color-interpolation-filters:linearRGB;solid-color:#000000;solid-opacity:1;vector-effect:none;fill:#000000;fill-opacity:1;fill-rule:nonzero;stroke:none;stroke-width:0.80123669;stroke-linecap:butt;stroke-linejoin:miter;stroke-miterlimit:4;stroke-dasharray:none;stroke-dashoffset:0;stroke-opacity:1;color-rendering:auto;image-rendering:auto;shape-rendering:auto;text-rendering:auto;enable-background:accumulate" />
    <path
       style="color:#000000;clip-rule:nonzero;display:inline;overflow:visible;visibility:visible;opacity:1;isolation:auto;mix-blend-mode:normal;color-interpolation:sRGB;color-interpolation-filters:linearRGB;solid-color:#000000;solid-opacity:1;fill:none;fill-opacity:1;fill-rule:nonzero;stroke:#000000;stroke-width:0.47592616;stroke-linecap:round;stroke-linejoin:round;stroke-miterlimit:4;stroke-dasharray:none;stroke-dashoffset:0;stroke-opacity:1;color-rendering:auto;image-rendering:auto;shape-rendering:auto;text-rendering:auto;enable-background:accumulate"
       d="m 88.030942,256.36646 c 16.224188,0.0133 18.594248,-0.57092 37.532218,-0.0121 l -0.22196,-8.14362 c -12.33155,0.39845 -24.75059,0.44703 -37.251748,0.16707 z"
       id="path4598-2"
       inkscape:connector-curvature="0"
       sodipodi:nodetypes="ccccc" />
    <g
       transform="matrix(0.95185227,0,0,0.95185227,61.17527,-5.7466047)"
       id="g4687-7">
      <path
         inkscape:connector-curvature="0"
         id="path4530-9"
         style="font-style:normal;font-variant:normal;font-weight:normal;font-stretch:normal;font-size:15px;line-height:1.25;font-family:'Ume Mincho Balsa';-inkscape-font-specification:'Ume Mincho Balsa';text-align:start;letter-spacing:0px;word-spacing:0px;writing-mode:lr-tb;text-anchor:start;fill:#000000;fill-opacity:1;stroke:none;stroke-width:0.40205631px;stroke-linecap:butt;stroke-linejoin:miter;stroke-opacity:1"
         d="M 29.753823,269.12255 H 31.1673 q 0.541835,0 0.918763,0.27091 0.376928,0.27094 0.376928,0.78919 0,0.54185 -0.365148,0.80098 -0.365152,0.25912 -0.930543,0.25912 h -0.730295 v 1.76688 h 0.353367 v 0.14132 h -1.036549 v -0.14132 h 0.353371 v -3.74572 h -0.353371 z m 0.683182,0.14136 v 1.83752 H 31.1673 q 0.400488,0 0.636069,-0.25916 0.235577,-0.25913 0.235577,-0.65962 0,-0.40049 -0.223801,-0.65961 -0.2238,-0.25913 -0.647845,-0.25913 z" />
      <path
         inkscape:connector-curvature="0"
         id="path4532-2"
         style="font-style:normal;font-variant:normal;font-weight:normal;font-stretch:normal;font-size:15px;line-height:1.25;font-family:'Ume Mincho Balsa';-inkscape-font-specification:'Ume Mincho Balsa';text-align:start;letter-spacing:0px;word-spacing:0px;writing-mode:lr-tb;text-anchor:start;fill:#000000;fill-opacity:1;stroke:none;stroke-width:0.40205631px;stroke-linecap:butt;stroke-linejoin:miter;stroke-opacity:1"
         d="m 32.816362,269.12255 h 2.662051 v 1.01298 h -0.164907 q 0,-0.87162 -0.753856,-0.87162 h -1.083666 v 1.69616 h 0.918763 q 0.353367,0 0.376927,-0.54181 h 0.164904 v 1.17786 h -0.164904 q -0.02356,-0.49469 -0.376927,-0.49469 h -0.918763 v 1.9082 h 1.083666 q 0.753856,0 0.753856,-0.8481 h 0.164907 v 0.98942 h -2.709168 v -0.14132 h 0.376928 v -3.74572 h -0.329811 z" />
      <path
         inkscape:connector-curvature="0"
         id="path4534-0"
         style="font-style:normal;font-variant:normal;font-weight:normal;font-stretch:normal;font-size:15px;line-height:1.25;font-family:'Ume Mincho Balsa';-inkscape-font-specification:'Ume Mincho Balsa';text-align:start;letter-spacing:0px;word-spacing:0px;writing-mode:lr-tb;text-anchor:start;fill:#000000;fill-opacity:1;stroke:none;stroke-width:0.40205631px;stroke-linecap:butt;stroke-linejoin:miter;stroke-opacity:1"
         d="m 35.784667,269.12255 h 1.225014 q 0.612508,0 0.989436,0.25913 0.376928,0.25916 0.376928,0.73029 0,0.32985 -0.247357,0.57719 -0.247361,0.24735 -0.647846,0.31803 l 0.800973,2.00244 h 0.424041 v 0.14132 h -0.777412 l -0.800973,-2.1202 h -0.636065 v 1.97888 h 0.353371 v 0.14132 h -1.06011 v -0.14132 h 0.376928 v -3.74572 h -0.376928 z m 0.706739,0.14136 v 1.62548 h 0.518275 q 0.447605,0 0.706742,-0.25913 0.259138,-0.25912 0.259138,-0.51829 0,-0.40049 -0.282698,-0.62427 -0.282694,-0.22379 -0.683182,-0.22379 z" />
      <path
         inkscape:connector-curvature="0"
         id="path4536-2"
         style="font-style:normal;font-variant:normal;font-weight:normal;font-stretch:normal;font-size:15px;line-height:1.25;font-family:'Ume Mincho Balsa';-inkscape-font-specification:'Ume Mincho Balsa';text-align:start;letter-spacing:0px;word-spacing:0px;writing-mode:lr-tb;text-anchor:start;fill:#000000;fill-opacity:1;stroke:none;stroke-width:0.40205631px;stroke-linecap:butt;stroke-linejoin:miter;stroke-opacity:1"
         d="m 38.847207,269.12255 h 2.662051 v 1.01298 h -0.212021 q 0,-0.87162 -0.706742,-0.87162 h -1.083667 v 1.69616 h 0.895203 q 0.353371,0 0.376928,-0.54181 h 0.188464 v 1.17786 h -0.188464 q -0.02356,-0.49469 -0.376928,-0.49469 h -0.895203 v 1.9082 h 0.376928 v 0.14132 H 38.80009 v -0.14132 h 0.376928 v -3.74572 h -0.329811 z" />
      <path
         inkscape:connector-curvature="0"
         id="path4538-3"
         style="font-style:normal;font-variant:normal;font-weight:normal;font-stretch:normal;font-size:15px;line-height:1.25;font-family:'Ume Mincho Balsa';-inkscape-font-specification:'Ume Mincho Balsa';text-align:start;letter-spacing:0px;word-spacing:0px;writing-mode:lr-tb;text-anchor:start;fill:#000000;fill-opacity:1;stroke:none;stroke-width:0.40205631px;stroke-linecap:butt;stroke-linejoin:miter;stroke-opacity:1"
         d="m 41.839069,271.10143 q 0,-0.87166 0.412264,-1.42525 0.412265,-0.55363 0.977656,-0.55363 0.541836,0 0.96588,0.55363 0.424045,0.55359 0.424045,1.42525 0,0.91874 -0.412268,1.49593 -0.412265,0.57715 -0.977657,0.57715 -0.565391,0 -0.977656,-0.57715 -0.412264,-0.57719 -0.412264,-1.49593 z m 0.424044,0 q 0,0.77742 0.282698,1.31923 0.282694,0.54185 0.683178,0.54185 0.400489,0 0.683183,-0.54185 0.282697,-0.54181 0.282697,-1.31923 0,-0.73029 -0.282697,-1.24858 -0.282694,-0.5183 -0.683183,-0.5183 -0.400484,0 -0.683178,0.50652 -0.282698,0.50651 -0.282698,1.26036 z" />
      <path
         inkscape:connector-curvature="0"
         id="path4540-7"
         style="font-style:normal;font-variant:normal;font-weight:normal;font-stretch:normal;font-size:15px;line-height:1.25;font-family:'Ume Mincho Balsa';-inkscape-font-specification:'Ume Mincho Balsa';text-align:start;letter-spacing:0px;word-spacing:0px;writing-mode:lr-tb;text-anchor:start;fill:#000000;fill-opacity:1;stroke:none;stroke-width:0.40205631px;stroke-linecap:butt;stroke-linejoin:miter;stroke-opacity:1"
         d="m 44.830935,269.12255 h 1.225013 q 0.612509,0 0.989436,0.25913 0.376928,0.25916 0.376928,0.73029 0,0.32985 -0.247357,0.57719 -0.247361,0.24735 -0.647845,0.31803 l 0.800972,2.00244 h 0.424041 v 0.14132 h -0.777412 l -0.800973,-2.1202 h -0.636065 v 1.97888 h 0.353371 v 0.14132 h -1.060109 v -0.14132 h 0.376927 v -3.74572 h -0.376927 z m 0.706738,0.14136 v 1.62548 h 0.518275 q 0.447605,0 0.706743,-0.25913 0.259137,-0.25912 0.259137,-0.51829 0,-0.40049 -0.282698,-0.62427 -0.282694,-0.22379 -0.683182,-0.22379 z" />
      <path
         inkscape:connector-curvature="0"
         id="path4542-5"
         style="font-style:normal;font-variant:normal;font-weight:normal;font-stretch:normal;font-size:15px;line-height:1.25;font-family:'Ume Mincho Balsa';-inkscape-font-specification:'Ume Mincho Balsa';text-align:start;letter-spacing:0px;word-spacing:0px;writing-mode:lr-tb;text-anchor:start;fill:#000000;fill-opacity:1;stroke:none;stroke-width:0.40205631px;stroke-linecap:butt;stroke-linejoin:miter;stroke-opacity:1"
         d="m 48.129051,269.26391 h -0.353368 v -0.14136 h 0.777413 l 0.659625,2.92118 0.777412,-2.92118 h 0.753856 v 0.14136 h -0.353371 v 3.74572 h 0.353371 v 0.14132 h -1.03655 v -0.14132 h 0.353368 v -3.46303 l -0.871646,3.29811 h -0.164904 l -0.753855,-3.29811 v 3.46303 h 0.353367 v 0.14132 h -0.848086 v -0.14132 h 0.353368 z" />
      <path
         inkscape:connector-curvature="0"
         id="path4544-9"
         style="font-style:normal;font-variant:normal;font-weight:normal;font-stretch:normal;font-size:15px;line-height:1.25;font-family:'Ume Mincho Balsa';-inkscape-font-specification:'Ume Mincho Balsa';text-align:start;letter-spacing:0px;word-spacing:0px;writing-mode:lr-tb;text-anchor:start;fill:#000000;fill-opacity:1;stroke:none;stroke-width:0.40205631px;stroke-linecap:butt;stroke-linejoin:miter;stroke-opacity:1"
         d="m 51.380054,273.00963 h 0.518275 v 0.14132 h -1.130784 v -0.14132 h 0.424045 l 0.918763,-3.88708 h 0.259138 l 0.942319,3.88708 h 0.471158 v 0.14132 h -1.24857 v -0.14132 h 0.400484 l -0.343062,-1.48415 h -0.868703 z m 0.777416,-3.36879 -0.397541,1.71972 h 0.795082 z" />
      <path
         inkscape:connector-curvature="0"
         id="path4546-2"
         style="font-style:normal;font-variant:normal;font-weight:normal;font-stretch:normal;font-size:15px;line-height:1.25;font-family:'Ume Mincho Balsa';-inkscape-font-specification:'Ume Mincho Balsa';text-align:start;letter-spacing:0px;word-spacing:0px;writing-mode:lr-tb;text-anchor:start;fill:#000000;fill-opacity:1;stroke:none;stroke-width:0.40205631px;stroke-linecap:butt;stroke-linejoin:miter;stroke-opacity:1"
         d="m 53.830085,269.12255 h 0.612508 l 1.790405,3.25099 v -3.10963 h -0.353367 v -0.14136 h 0.848086 v 0.14136 h -0.353368 v 3.88704 h -0.141351 l -1.884639,-3.46299 v 3.32167 h 0.353372 v 0.14132 h -0.848086 v -0.14132 h 0.353368 v -3.74572 h -0.376928 z" />
      <path
         inkscape:connector-curvature="0"
         id="path4548-2"
         style="font-style:normal;font-variant:normal;font-weight:normal;font-stretch:normal;font-size:15px;line-height:1.25;font-family:'Ume Mincho Balsa';-inkscape-font-specification:'Ume Mincho Balsa';text-align:start;letter-spacing:0px;word-spacing:0px;writing-mode:lr-tb;text-anchor:start;fill:#000000;fill-opacity:1;stroke:none;stroke-width:0.40205631px;stroke-linecap:butt;stroke-linejoin:miter;stroke-opacity:1"
         d="m 57.010415,271.10143 q 0,-0.8481 0.412264,-1.41347 0.412265,-0.56541 1.024773,-0.56541 0.235577,0 0.400485,0.0589 0.164907,0.0589 0.32981,0.1531 l 0.259138,-0.212 h 0.164907 v 1.22503 h -0.21202 q -0.02356,-0.44761 -0.282698,-0.7303 -0.259137,-0.28273 -0.659622,-0.28273 -0.494718,0 -0.753855,0.5183 -0.259138,0.51829 -0.259138,1.24858 0,0.75386 0.270914,1.27211 0.270918,0.51829 0.765636,0.51829 0.306254,0 0.600728,-0.25913 0.294474,-0.25916 0.412265,-0.75385 l 0.212024,0.0471 q -0.11779,0.61249 -0.459381,0.93052 -0.341591,0.31802 -0.765636,0.31802 -0.706739,0 -1.083667,-0.63605 -0.376927,-0.63605 -0.376927,-1.43703 z" />
      <path
         inkscape:connector-curvature="0"
         id="path4550-8"
         style="font-style:normal;font-variant:normal;font-weight:normal;font-stretch:normal;font-size:15px;line-height:1.25;font-family:'Ume Mincho Balsa';-inkscape-font-specification:'Ume Mincho Balsa';text-align:start;letter-spacing:0px;word-spacing:0px;writing-mode:lr-tb;text-anchor:start;fill:#000000;fill-opacity:1;stroke:none;stroke-width:0.40205631px;stroke-linecap:butt;stroke-linejoin:miter;stroke-opacity:1"
         d="m 59.955164,269.12255 h 2.662051 v 1.01298 h -0.164908 q 0,-0.87162 -0.753855,-0.87162 h -1.083667 v 1.69616 h 0.918763 q 0.353367,0 0.376928,-0.54181 h 0.164903 v 1.17786 h -0.164903 q -0.02356,-0.49469 -0.376928,-0.49469 h -0.918763 v 1.9082 h 1.083667 q 0.753855,0 0.753855,-0.8481 h 0.164908 v 0.98942 h -2.709168 v -0.14132 h 0.376927 v -3.74572 h -0.32981 z" />
      <path
         inkscape:connector-curvature="0"
         id="path4552-9"
         style="font-style:normal;font-variant:normal;font-weight:normal;font-stretch:normal;font-size:15px;line-height:1.25;font-family:'Ume Mincho Balsa';-inkscape-font-specification:'Ume Mincho Balsa';text-align:start;letter-spacing:0px;word-spacing:0px;writing-mode:lr-tb;text-anchor:start;fill:#000000;fill-opacity:1;stroke:none;stroke-width:0.40205631px;stroke-linecap:butt;stroke-linejoin:miter;stroke-opacity:1"
         d="m 64.289833,269.12255 q 0.212021,0 0.412265,0.0707 0.20024,0.0707 0.412264,0.25913 l 0.235581,-0.32981 h 0.164904 v 1.29571 h -0.164904 q -0.02356,-0.32985 -0.176688,-0.57719 -0.153127,-0.24735 -0.376927,-0.38871 -0.223801,-0.14133 -0.506495,-0.14133 -0.353371,0 -0.553615,0.20023 -0.20024,0.20022 -0.20024,0.60071 0.02356,0.30629 0.21202,0.45939 0.188464,0.15314 0.706739,0.31803 0.659625,0.21204 0.895206,0.50651 0.235577,0.29446 0.235577,0.71851 0,0.51829 -0.306254,0.7892 -0.306251,0.2709 -0.848086,0.2709 -0.329811,0 -0.518275,-0.0825 -0.188463,-0.0824 -0.400488,-0.2709 l -0.164903,0.35336 h -0.164908 v -1.34278 h 0.164908 q 0.07067,0.44761 0.176683,0.67139 0.106011,0.22378 0.341591,0.35337 0.235581,0.12958 0.565392,0.12958 0.306254,0 0.518275,-0.21204 0.212024,-0.21201 0.212024,-0.65962 0,-0.23556 -0.141351,-0.44761 -0.141347,-0.212 -0.683182,-0.42405 -0.730295,-0.23556 -0.965876,-0.49469 -0.235581,-0.25916 -0.235581,-0.63609 0,-0.44757 0.294474,-0.71851 0.294479,-0.27091 0.85987,-0.27091 z" />
    </g>
    <g
       style="display:inline"
       id="g4600-6"
       transform="matrix(0.9518523,0,0,0.9518523,-66.598069,12.598188)">
      <path
         d="m 76.964388,251.76434 q 0,-0.84229 0.409448,-1.40382 0.409453,-0.56153 1.017777,-0.56153 0.233971,0 0.397748,0.0585 0.163782,0.0585 0.327559,0.15208 l 0.25737,-0.21057 h 0.163777 v 1.21665 h -0.210571 q -0.02341,-0.44455 -0.280765,-0.72531 -0.25737,-0.28077 -0.655118,-0.28077 -0.491341,0 -0.748707,0.51474 -0.25737,0.51473 -0.25737,1.24004 0,0.74871 0.269065,1.26345 0.26907,0.51473 0.760406,0.51473 0.304165,0 0.596625,-0.25737 0.292465,-0.25736 0.409452,-0.7487 l 0.210572,0.0468 q -0.116983,0.60833 -0.456242,0.92419 -0.339259,0.31586 -0.760407,0.31586 -0.701912,0 -1.076265,-0.63172 -0.374354,-0.63172 -0.374354,-1.42723 z"
         style="font-style:normal;font-variant:normal;font-weight:normal;font-stretch:normal;font-size:medium;line-height:17.33333397px;font-family:'Ume Mincho Balsa';-inkscape-font-specification:'Ume Mincho Balsa';font-variant-ligatures:normal;font-variant-caps:normal;font-variant-numeric:normal;font-feature-settings:normal;text-align:start;letter-spacing:0px;word-spacing:0px;writing-mode:lr-tb;text-anchor:start;fill:#000000;fill-opacity:1;stroke:none;stroke-width:0.49913773px;stroke-linecap:butt;stroke-linejoin:miter;stroke-opacity:1"
         id="path4558-1"
         inkscape:connector-curvature="0" />
      <path
         d="m 79.842232,249.79899 h 1.216648 q 0.608324,0 0.982678,0.25737 0.374353,0.25737 0.374353,0.72531 0,0.32756 -0.245671,0.57323 -0.24567,0.24566 -0.643418,0.31586 l 0.795501,1.98875 h 0.421147 v 0.14038 h -0.772106 l -0.795501,-2.10574 h -0.631719 v 1.96536 h 0.350954 v 0.14038 h -1.052866 v -0.14038 h 0.374353 v -3.72014 h -0.374353 z m 0.701912,0.14038 v 1.6144 h 0.514736 q 0.444542,0 0.701913,-0.25737 0.257365,-0.25737 0.257365,-0.51473 0,-0.39775 -0.280765,-0.62003 -0.280765,-0.22227 -0.678513,-0.22227 z"
         style="font-style:normal;font-variant:normal;font-weight:normal;font-stretch:normal;font-size:medium;line-height:17.33333397px;font-family:'Ume Mincho Balsa';-inkscape-font-specification:'Ume Mincho Balsa';font-variant-ligatures:normal;font-variant-caps:normal;font-variant-numeric:normal;font-feature-settings:normal;text-align:start;letter-spacing:0px;word-spacing:0px;writing-mode:lr-tb;text-anchor:start;fill:#000000;fill-opacity:1;stroke:none;stroke-width:0.49913773px;stroke-linecap:butt;stroke-linejoin:miter;stroke-opacity:1"
         id="path4560-8"
         inkscape:connector-curvature="0" />
      <path
         d="m 82.883852,250.5009 h 2.643868 v 0.86569 h -0.210571 q 0,-0.72531 -0.701913,-0.72531 h -1.076265 v 1.42723 h 0.889089 q 0.350954,0 0.374353,-0.39775 h 0.187177 v 0.91248 h -0.187177 q -0.02341,-0.37435 -0.374353,-0.37435 h -0.889089 v 1.45062 h 1.076265 q 0.701913,0 0.701913,-0.70191 h 0.210571 v 0.84229 h -2.690662 v -0.14038 h 0.374354 v -3.01823 h -0.32756 z m 1.357031,-1.6144 h 0.748707 v 0.16378 l -1.380431,0.8423 -0.116982,-0.11699 z"
         style="font-style:normal;font-variant:normal;font-weight:normal;font-stretch:normal;font-size:medium;line-height:17.33333397px;font-family:'Ume Mincho Balsa';-inkscape-font-specification:'Ume Mincho Balsa';font-variant-ligatures:normal;font-variant-caps:normal;font-variant-numeric:normal;font-feature-settings:normal;text-align:start;letter-spacing:0px;word-spacing:0px;writing-mode:lr-tb;text-anchor:start;fill:#000000;fill-opacity:1;stroke:none;stroke-width:0.49913773px;stroke-linecap:butt;stroke-linejoin:miter;stroke-opacity:1"
         id="path4562-7"
         inkscape:connector-curvature="0" />
      <path
         d="m 86.34662,253.65951 h 0.514736 v 0.14038 h -1.12306 v -0.14038 h 0.421148 l 0.912484,-3.86052 h 0.25737 l 0.935883,3.86052 h 0.467942 v 0.14038 h -1.240048 v -0.14038 h 0.397753 l -0.340722,-1.47402 h -0.862769 z m 0.772102,-3.34578 -0.394823,1.70798 h 0.789651 z"
         style="font-style:normal;font-variant:normal;font-weight:normal;font-stretch:normal;font-size:medium;line-height:17.33333397px;font-family:'Ume Mincho Balsa';-inkscape-font-specification:'Ume Mincho Balsa';font-variant-ligatures:normal;font-variant-caps:normal;font-variant-numeric:normal;font-feature-settings:normal;text-align:start;letter-spacing:0px;word-spacing:0px;writing-mode:lr-tb;text-anchor:start;fill:#000000;fill-opacity:1;stroke:none;stroke-width:0.49913773px;stroke-linecap:butt;stroke-linejoin:miter;stroke-opacity:1"
         id="path4564-9"
         inkscape:connector-curvature="0" />
      <path
         d="m 90.043359,249.93937 h -0.374353 q -0.538135,0 -0.538135,0.93589 h -0.163777 v -1.07627 h 2.550279 v 1.07627 h -0.163777 q 0,-0.93589 -0.58493,-0.93589 h -0.397748 v 3.72014 h 0.350954 v 0.14038 h -1.029471 v -0.14038 h 0.350958 z"
         style="font-style:normal;font-variant:normal;font-weight:normal;font-stretch:normal;font-size:medium;line-height:17.33333397px;font-family:'Ume Mincho Balsa';-inkscape-font-specification:'Ume Mincho Balsa';font-variant-ligatures:normal;font-variant-caps:normal;font-variant-numeric:normal;font-feature-settings:normal;text-align:start;letter-spacing:0px;word-spacing:0px;writing-mode:lr-tb;text-anchor:start;fill:#000000;fill-opacity:1;stroke:none;stroke-width:0.49913773px;stroke-linecap:butt;stroke-linejoin:miter;stroke-opacity:1"
         id="path4566-2"
         inkscape:connector-curvature="0" />
      <path
         d="m 93.038186,249.93937 h -0.327559 v -0.14038 h 0.982677 v 0.14038 h -0.327559 v 3.72014 h 0.350954 v 0.14038 h -1.029472 v -0.14038 h 0.350959 z"
         style="font-style:normal;font-variant:normal;font-weight:normal;font-stretch:normal;font-size:medium;line-height:17.33333397px;font-family:'Ume Mincho Balsa';-inkscape-font-specification:'Ume Mincho Balsa';font-variant-ligatures:normal;font-variant-caps:normal;font-variant-numeric:normal;font-feature-settings:normal;text-align:start;letter-spacing:0px;word-spacing:0px;writing-mode:lr-tb;text-anchor:start;fill:#000000;fill-opacity:1;stroke:none;stroke-width:0.49913773px;stroke-linecap:butt;stroke-linejoin:miter;stroke-opacity:1"
         id="path4568-0"
         inkscape:connector-curvature="0" />
      <path
         d="m 94.839758,251.76434 q 0,-0.86569 0.409448,-1.41552 0.409453,-0.54983 0.970983,-0.54983 0.53813,0 0.959278,0.54983 0.421147,0.54983 0.421147,1.41552 0,0.91249 -0.409448,1.48572 -0.409447,0.57323 -0.970977,0.57323 -0.56153,0 -0.970983,-0.57323 -0.409448,-0.57323 -0.409448,-1.48572 z m 0.421148,0 q 0,0.77211 0.280765,1.31024 0.280765,0.53813 0.678518,0.53813 0.397748,0 0.678513,-0.53813 0.280765,-0.53813 0.280765,-1.31024 0,-0.72531 -0.280765,-1.24004 -0.280765,-0.51474 -0.678513,-0.51474 -0.397753,0 -0.678518,0.50304 -0.280765,0.50304 -0.280765,1.25174 z"
         style="font-style:normal;font-variant:normal;font-weight:normal;font-stretch:normal;font-size:medium;line-height:17.33333397px;font-family:'Ume Mincho Balsa';-inkscape-font-specification:'Ume Mincho Balsa';font-variant-ligatures:normal;font-variant-caps:normal;font-variant-numeric:normal;font-feature-settings:normal;text-align:start;letter-spacing:0px;word-spacing:0px;writing-mode:lr-tb;text-anchor:start;fill:#000000;fill-opacity:1;stroke:none;stroke-width:0.49913773px;stroke-linecap:butt;stroke-linejoin:miter;stroke-opacity:1"
         id="path4570-2"
         inkscape:connector-curvature="0" />
      <path
         d="m 97.764396,249.79899 h 0.608324 l 1.77818,3.2288 v -3.08842 h -0.35096 v -0.14038 h 0.84229 v 0.14038 h -0.35095 v 3.86052 h -0.14038 l -1.871768,-3.43937 v 3.29899 h 0.350954 v 0.14038 h -0.842295 v -0.14038 h 0.350958 v -3.72014 h -0.374353 z"
         style="font-style:normal;font-variant:normal;font-weight:normal;font-stretch:normal;font-size:medium;line-height:17.33333397px;font-family:'Ume Mincho Balsa';-inkscape-font-specification:'Ume Mincho Balsa';font-variant-ligatures:normal;font-variant-caps:normal;font-variant-numeric:normal;font-feature-settings:normal;text-align:start;letter-spacing:0px;word-spacing:0px;writing-mode:lr-tb;text-anchor:start;fill:#000000;fill-opacity:1;stroke:none;stroke-width:0.49913773px;stroke-linecap:butt;stroke-linejoin:miter;stroke-opacity:1"
         id="path4572-3"
         inkscape:connector-curvature="0" />
    </g>
    <path
       sodipodi:nodetypes="cccc"
       inkscape:connector-curvature="0"
       id="path4596-36"
       d="m 37.35168,247.01297 -0.03274,0.94988 m -0.294794,8.25298 -0.139521,2.84776"
       style="fill:none;fill-rule:evenodd;stroke:#000000;stroke-width:0.79374999;stroke-linecap:butt;stroke-linejoin:miter;stroke-miterlimit:4;stroke-dasharray:none;stroke-opacity:1" />
    <path
       d="m 30.798901,250.41663 q 0.201811,0 0.39241,0.0673 0.190599,0.0673 0.39242,0.24666 l 0.224238,-0.31393 h 0.15696 v 1.23332 h -0.15696 q -0.02246,-0.31397 -0.168183,-0.5494 -0.145757,-0.23544 -0.358782,-0.36999 -0.213024,-0.13453 -0.482103,-0.13453 -0.336366,0 -0.526965,0.19059 -0.190599,0.19058 -0.190599,0.57179 0.02246,0.29154 0.201812,0.43727 0.179386,0.14577 0.672712,0.30272 0.62787,0.20183 0.852108,0.48212 0.224228,0.28028 0.224228,0.68392 0,0.49333 -0.291505,0.7512 -0.291505,0.25786 -0.807257,0.25786 -0.31393,0 -0.493316,-0.0785 -0.179396,-0.0784 -0.381207,-0.25786 l -0.156961,0.33635 h -0.15697 v -1.27813 h 0.15697 q 0.0673,0.42606 0.168173,0.63906 0.100906,0.21301 0.325144,0.33636 0.224237,0.12334 0.538167,0.12334 0.291515,0 0.493326,-0.20183 0.201812,-0.2018 0.201812,-0.62786 0,-0.22422 -0.134544,-0.42606 -0.134544,-0.20179 -0.650287,-0.40363 -0.695137,-0.22422 -0.919375,-0.47087 -0.224237,-0.24669 -0.224237,-0.60547 0,-0.42602 0.280301,-0.68391 0.280292,-0.25787 0.81847,-0.25787 z"
       style="font-style:normal;font-variant:normal;font-weight:normal;font-stretch:normal;font-size:15px;line-height:1.25;font-family:'Ume Mincho Balsa';-inkscape-font-specification:'Ume Mincho Balsa';text-align:start;letter-spacing:0px;word-spacing:0px;writing-mode:lr-tb;text-anchor:start;fill:#000000;fill-opacity:1;stroke:none;stroke-width:0.38269821px;stroke-linecap:butt;stroke-linejoin:miter;stroke-opacity:1"
       id="path4615"
       inkscape:connector-curvature="0" />
  </g>
</svg>
