<?xml version="1.0" encoding="UTF-8" standalone="no"?>
<!-- Created with Inkscape (http://www.inkscape.org/) -->

<svg
   xmlns:dc="http://purl.org/dc/elements/1.1/"
   xmlns:cc="http://creativecommons.org/ns#"
   xmlns:rdf="http://www.w3.org/1999/02/22-rdf-syntax-ns#"
   xmlns:svg="http://www.w3.org/2000/svg"
   xmlns="http://www.w3.org/2000/svg"
   xmlns:sodipodi="http://sodipodi.sourceforge.net/DTD/sodipodi-0.dtd"
   xmlns:inkscape="http://www.inkscape.org/namespaces/inkscape"
   version="1.1"
   id="svg2"
   width="219.25682"
   height="43.540981"
   viewBox="0 0 219.25682 43.540981"
   sodipodi:docname="mars.svg"
   inkscape:version="0.92.3 (2405546, 2018-03-11)">
  <metadata
     id="metadata8">
    <rdf:RDF>
      <cc:Work
         rdf:about="">
        <dc:format>image/svg+xml</dc:format>
        <dc:type
           rdf:resource="http://purl.org/dc/dcmitype/StillImage" />
        <dc:title></dc:title>
      </cc:Work>
    </rdf:RDF>
  </metadata>
  <defs
     id="defs6" />
  <sodipodi:namedview
     pagecolor="#ffffff"
     bordercolor="#666666"
     borderopacity="1"
     objecttolerance="10"
     gridtolerance="10"
     guidetolerance="10"
     inkscape:pageopacity="0"
     inkscape:pageshadow="2"
     inkscape:window-width="1600"
     inkscape:window-height="1172"
     id="namedview4"
     showgrid="false"
     fit-margin-top="0"
     fit-margin-left="0"
     fit-margin-right="0"
     fit-margin-bottom="0"
     inkscape:zoom="0.72619048"
     inkscape:cx="64.032787"
     inkscape:cy="-330.06558"
     inkscape:window-x="1366"
     inkscape:window-y="0"
     inkscape:window-maximized="1"
     inkscape:current-layer="svg2" />
  <path
     style="fill:#000000;stroke-width:0.99999994"
     d="M 0,21.77049 V 0 H 4.136393 8.272787 V 21.77049 43.54098 H 4.136393 0 Z m 196.13563,10.90176 c 5.97422,-5.9778 10.77314,-10.96673 10.66427,-11.08652 -0.10886,-0.11978 -4.99586,-5.02557 -10.86001,-10.90176 L 185.27781,0 h 6.09328 6.09327 l 10.89623,10.87441 10.89623,10.87442 -10.90237,10.89608 -10.90237,10.89607 h -6.08933 -6.08933 z M 96.190937,36.12774 C 88.368847,34.83038 83.37207,26.2665 85.523561,17.84512 c 1.195431,-4.67918 3.542416,-7.59211 7.654146,-9.49986 3.16888,-1.47029 7.242263,-1.56732 9.905573,-0.23595 1.7705,0.88505 1.85049,0.88976 1.85049,0.10885 0,-0.74357 0.38741,-0.81619 4.3541,-0.81619 h 4.3541 v 14.15082 14.15082 h -4.3541 c -3.40341,0 -4.3541,-0.13068 -4.3541,-0.59849 0,-0.4768 -0.33198,-0.44145 -1.63278,0.17388 -2.06137,0.97509 -4.554153,1.27266 -7.110053,0.84874 z m 7.436603,-8.65655 c 1.03291,-0.74508 1.0948,-1.03095 1.21124,-5.5952 0.12097,-4.7416 0.10641,-4.82282 -1.02384,-5.71188 -1.71478,-1.34885 -3.81008,-1.59153 -6.121073,-0.70895 -4.22998,1.61544 -5.41881,7.31303 -2.2734,10.89546 2.13665,2.43351 5.710493,2.92147 8.207073,1.12057 z m 48.78928,8.61739 c -2.90656,-0.49323 -5.70596,-2.07845 -7.2536,-4.10752 -0.6402,-0.83934 -1.08769,-1.58343 -0.99443,-1.65352 0.0933,-0.0701 1.51045,-1.05069 3.14931,-2.17908 l 2.97973,-2.05163 1.65199,1.49247 c 1.86934,1.68884 3.88233,2.30609 5.2076,1.59683 1.95121,-1.04426 0.81842,-2.30478 -3.5208,-3.91782 -6.33441,-2.35472 -9.15695,-6.63592 -7.77024,-11.78578 0.95357,-3.54126 5.32477,-6.51597 9.57493,-6.51597 2.1636,0 5.49908,1.29226 7.21234,2.79426 l 1.71357,1.50227 -2.46809,2.49213 -2.46808,2.49213 -1.40212,-1.1798 c -1.06674,-0.89761 -1.77823,-1.14834 -2.97454,-1.04827 -1.34117,0.1122 -1.57242,0.28793 -1.57242,1.19497 0,0.91824 0.45324,1.2452 3.31974,2.39475 6.06898,2.43386 8.33353,4.55714 8.90177,8.34641 1.03357,6.89235 -5.04876,11.53108 -13.28666,10.13317 z M 34.397377,21.55279 V 7.40197 h 4.136394 c 3.806234,0 4.136392,0.0675 4.136392,0.84633 0,0.83513 0.02473,0.8354 1.868988,0.0196 1.027946,-0.45471 2.668666,-0.95462 3.646052,-1.11091 2.278317,-0.36432 6.158576,0.73626 7.970186,2.26064 1.243087,1.04598 1.412827,1.082 2.113062,0.44829 1.787858,-1.61799 5.017515,-2.63869 8.349253,-2.63869 5.20465,0 8.63982,2.02776 10.622659,6.27048 0.832974,1.78232 0.92815,2.87393 1.053505,12.08262 l 0.137807,10.12328 h -4.119918 -4.119913 l -0.154283,-8.67649 c -0.141957,-7.98327 -0.226988,-8.77468 -1.064259,-9.90557 -1.823653,-2.46318 -4.656129,-2.75879 -7.471663,-0.77979 -0.964089,0.67765 -0.979673,0.83711 -0.979673,10.02522 v 9.33663 h -4.097019 -4.097019 l -0.148227,-8.67712 c -0.136483,-7.9896 -0.220326,-8.77444 -1.058202,-9.90557 -1.374759,-1.85591 -2.876836,-2.44468 -4.868597,-1.90836 -0.91345,0.24597 -2.09325,0.85008 -2.621776,1.34249 -0.931969,0.86826 -0.960963,1.1706 -0.960963,10.02191 v 9.12665 h -4.136392 -4.136394 z m 87.517383,-0.0158 V 7.37039 L 126.16,7.49501 c 4.08716,0.11998 4.24396,0.16111 4.21068,1.1043 -0.0424,1.20199 -0.11857,1.20508 1.76268,-0.0716 1.76692,-1.19906 4.40398,-1.76588 6.2892,-1.35181 l 1.28738,0.28275 0.13717,4.27807 0.13716,4.27806 -3.26558,-0.20241 c -2.63011,-0.16301 -3.54741,-0.0456 -4.71392,0.60308 l -1.44836,0.80547 0.0488,9.24131 0.0488,9.24131 h -4.3696 -4.36959 V 21.53695 Z"
     id="path817"
     inkscape:connector-curvature="0" />
</svg>
